EESchema Schematic File Version 2
LIBS:power
LIBS:device
LIBS:transistors
LIBS:conn
LIBS:linear
LIBS:regul
LIBS:74xx
LIBS:cmos4000
LIBS:adc-dac
LIBS:memory
LIBS:xilinx
LIBS:microcontrollers
LIBS:dsp
LIBS:microchip
LIBS:analog_switches
LIBS:motorola
LIBS:texas
LIBS:intel
LIBS:audio
LIBS:interface
LIBS:digital-audio
LIBS:philips
LIBS:display
LIBS:cypress
LIBS:siliconi
LIBS:opto
LIBS:atmel
LIBS:contrib
LIBS:valves
EELAYER 25 0
EELAYER END
$Descr A4 11693 8268
encoding utf-8
Sheet 1 1
Title ""
Date ""
Rev ""
Comp ""
Comment1 ""
Comment2 ""
Comment3 ""
Comment4 ""
$EndDescr
$Comp
L LED D1
U 1 1 558184C0
P 6650 4500
F 0 "D1" H 6650 4600 50  0000 C CNN
F 1 "UV-LED" H 6650 4400 50  0000 C CNN
F 2 "SM1_UVled_Holder:UV3WLED" H 6650 4500 60  0001 C CNN
F 3 "" H 6650 4500 60  0000 C CNN
	1    6650 4500
	1    0    0    -1  
$EndComp
$Comp
L CONN_01X03 P1
U 1 1 55818924
P 5800 4800
F 0 "P1" H 5800 5000 50  0000 C CNN
F 1 "CONN_01X03" V 5900 4800 50  0000 C CNN
F 2 "Pin_Headers:Pin_Header_Straight_1x03" H 5800 4800 60  0001 C CNN
F 3 "" H 5800 4800 60  0000 C CNN
	1    5800 4800
	0    1    1    0   
$EndComp
$Comp
L +5V #PWR01
U 1 1 55818983
P 5250 4400
F 0 "#PWR01" H 5250 4250 50  0001 C CNN
F 1 "+5V" H 5250 4540 50  0000 C CNN
F 2 "" H 5250 4400 60  0000 C CNN
F 3 "" H 5250 4400 60  0000 C CNN
	1    5250 4400
	1    0    0    -1  
$EndComp
Wire Wire Line
	5900 4600 5900 4500
Wire Wire Line
	5900 4500 6450 4500
Wire Wire Line
	6200 4500 6200 4700
$Comp
L POT RV1
U 1 1 55818D8F
P 4450 3600
F 0 "RV1" H 4450 3500 50  0000 C CNN
F 1 "POT1k" H 4450 3600 50  0000 C CNN
F 2 "SM1_UVled_Holder:BournsPTV09horzPotentiometer" H 4450 3600 60  0001 C CNN
F 3 "" H 4450 3600 60  0000 C CNN
	1    4450 3600
	0    1    1    0   
$EndComp
Connection ~ 6200 4500
Wire Wire Line
	7000 4150 7000 4500
Wire Wire Line
	7000 4500 6850 4500
Wire Wire Line
	6550 3950 6700 3950
Connection ~ 5950 4500
Wire Wire Line
	5550 4050 5150 4050
Wire Wire Line
	5150 3300 7000 3300
Wire Wire Line
	7000 3300 7000 3750
$Comp
L R R2
U 1 1 5581922A
P 5000 4050
F 0 "R2" V 5080 4050 50  0000 C CNN
F 1 "R.5" V 5000 4050 50  0000 C CNN
F 2 "SM1_UVled_Holder:CurSenseRes6432" V 4930 4050 30  0001 C CNN
F 3 "" H 5000 4050 30  0000 C CNN
	1    5000 4050
	0    1    1    0   
$EndComp
Connection ~ 5150 4050
Wire Wire Line
	5550 3850 5500 3850
Wire Wire Line
	5150 4050 5150 3300
$Comp
L R R1
U 1 1 55819558
P 4600 3200
F 0 "R1" V 4680 3200 50  0000 C CNN
F 1 "R10k" V 4600 3200 50  0000 C CNN
F 2 "Resistors_SMD:R_0805_HandSoldering" V 4530 3200 30  0001 C CNN
F 3 "" H 4600 3200 30  0000 C CNN
	1    4600 3200
	0    1    1    0   
$EndComp
$Comp
L GND #PWR02
U 1 1 558195DE
P 4900 3200
F 0 "#PWR02" H 4900 2950 50  0001 C CNN
F 1 "GND" H 4900 3050 50  0000 C CNN
F 2 "" H 4900 3200 60  0000 C CNN
F 3 "" H 4900 3200 60  0000 C CNN
	1    4900 3200
	0    -1   -1   0   
$EndComp
$Comp
L Q_PNP_BCE Q1
U 1 1 558196F4
P 6900 3950
F 0 "Q1" H 7200 4000 50  0000 R CNN
F 1 "Q_PNP_BCE" H 7500 3900 50  0000 R CNN
F 2 "Transistors_SMD:sot428" H 7100 4050 29  0001 C CNN
F 3 "" H 6900 3950 60  0000 C CNN
	1    6900 3950
	1    0    0    1   
$EndComp
$Comp
L JUMPER3 JP1
U 1 1 55819775
P 4450 4050
F 0 "JP1" H 4500 3950 50  0000 L CNN
F 1 "JUMPER3" H 4450 4150 50  0000 C BNN
F 2 "Pin_Headers:Pin_Header_Straight_1x03" H 4450 4050 60  0001 C CNN
F 3 "" H 4450 4050 60  0000 C CNN
	1    4450 4050
	-1   0    0    1   
$EndComp
Wire Wire Line
	4700 4050 4850 4050
Wire Wire Line
	4800 4050 4800 4450
Connection ~ 4800 4050
Wire Wire Line
	4450 3950 4450 3850
Wire Wire Line
	5700 4600 3900 4600
Wire Wire Line
	3900 4600 3900 4050
Wire Wire Line
	3900 4050 4200 4050
Wire Wire Line
	4900 3200 4750 3200
Wire Wire Line
	4450 3200 4450 3350
Wire Wire Line
	4600 3600 5500 3600
Wire Wire Line
	5500 3600 5500 3850
Wire Wire Line
	4800 4450 5800 4450
Wire Wire Line
	5250 4450 5250 4400
Wire Wire Line
	5800 4450 5800 4600
Connection ~ 5250 4450
$Comp
L +5V #PWR03
U 1 1 5581AC54
P 5950 3550
F 0 "#PWR03" H 5950 3400 50  0001 C CNN
F 1 "+5V" H 5950 3690 50  0000 C CNN
F 2 "" H 5950 3550 60  0000 C CNN
F 3 "" H 5950 3550 60  0000 C CNN
	1    5950 3550
	1    0    0    -1  
$EndComp
$Comp
L GND #PWR04
U 1 1 5581ACE6
P 6200 4700
F 0 "#PWR04" H 6200 4450 50  0001 C CNN
F 1 "GND" H 6200 4550 50  0000 C CNN
F 2 "" H 6200 4700 60  0000 C CNN
F 3 "" H 6200 4700 60  0000 C CNN
	1    6200 4700
	1    0    0    -1  
$EndComp
Wire Wire Line
	5950 4350 5950 4500
$Comp
L LM358N U1
U 1 1 5581B36F
P 6050 3950
F 0 "U1" H 6000 4150 60  0000 L CNN
F 1 "LM358N" H 6000 3700 60  0000 L CNN
F 2 "SMD_Packages:SOIC-8-N" H 6050 3950 60  0001 C CNN
F 3 "" H 6050 3950 60  0000 C CNN
	1    6050 3950
	1    0    0    -1  
$EndComp
$Comp
L C C1
U 1 1 5581EF80
P 6100 3600
F 0 "C1" H 6125 3700 50  0000 L CNN
F 1 "C" H 6125 3500 50  0000 L CNN
F 2 "Capacitors_SMD:C_0805_HandSoldering" H 6138 3450 30  0001 C CNN
F 3 "" H 6100 3600 60  0000 C CNN
	1    6100 3600
	0    1    1    0   
$EndComp
$Comp
L GND #PWR05
U 1 1 5581EFD8
P 6250 3600
F 0 "#PWR05" H 6250 3350 50  0001 C CNN
F 1 "GND" H 6250 3450 50  0000 C CNN
F 2 "" H 6250 3600 60  0000 C CNN
F 3 "" H 6250 3600 60  0000 C CNN
	1    6250 3600
	1    0    0    -1  
$EndComp
$EndSCHEMATC
